VerilogSouce/ALU/test2.txt
VCD info: dumpfile ARM_ALU_TestBench.vcd opened for output.
 Test Results
*** Testing And ***
A=00000000,B=00000000,OP=  0,Out=00000000,FLAGS_OUT=  4,FLAGS=  0,S=  1,ALU_OUT=  1
A=00000001,B=00000000,OP=  0,Out=00000000,FLAGS_OUT=  4,FLAGS=  4,S=  1,ALU_OUT=  1
A=00000001,B=00000001,OP=  0,Out=00000001,FLAGS_OUT=  0,FLAGS=  4,S=  1,ALU_OUT=  1
A=0000000f,B=0000000f,OP=  0,Out=0000000f,FLAGS_OUT=  0,FLAGS=  0,S=  1,ALU_OUT=  1
A=0000000f,B=000000f0,OP=  0,Out=00000000,FLAGS_OUT=  4,FLAGS=  0,S=  1,ALU_OUT=  1
A=000000f3,B=000000f1,OP=  0,Out=000000f1,FLAGS_OUT=  0,FLAGS=  4,S=  1,ALU_OUT=  1
A=00001111,B=00001111,OP=  0,Out=00001111,FLAGS_OUT=  0,FLAGS=  0,S=  1,ALU_OUT=  1
A=000000fb,B=0000000b,OP=  0,Out=0000000b,FLAGS_OUT=  0,FLAGS=  0,S=  1,ALU_OUT=  1
*** Testing XOR ***
A=000000fb,B=0000000b,OP=  1,Out=000000f0,FLAGS_OUT=  0,FLAGS=  0,S=  1,ALU_OUT=  1
A=00000001,B=00000001,OP=  1,Out=00000000,FLAGS_OUT=  4,FLAGS=  0,S=  1,ALU_OUT=  1
A=0000000f,B=0000000f,OP=  1,Out=00000000,FLAGS_OUT=  4,FLAGS=  4,S=  1,ALU_OUT=  1
A=0000000f,B=000000f0,OP=  1,Out=000000ff,FLAGS_OUT=  0,FLAGS=  4,S=  1,ALU_OUT=  1
A=000000f3,B=000000f1,OP=  1,Out=00000002,FLAGS_OUT=  0,FLAGS=  0,S=  1,ALU_OUT=  1
A=00001111,B=00001111,OP=  1,Out=00000000,FLAGS_OUT=  4,FLAGS=  0,S=  1,ALU_OUT=  1
*** Testin SUB ***
A=000000fb,B=0000000b,OP=  2,Out=000000f0,FLAGS_OUT=  2,FLAGS=  4,S=  1,ALU_OUT=  1
A=00000001,B=00000001,OP=  2,Out=00000000,FLAGS_OUT=  6,FLAGS=  2,S=  1,ALU_OUT=  1
A=0000000f,B=0000000f,OP=  2,Out=00000000,FLAGS_OUT=  6,FLAGS=  6,S=  1,ALU_OUT=  1
A=0000000f,B=000000f0,OP=  2,Out=ffffff1f,FLAGS_OUT=  8,FLAGS=  6,S=  1,ALU_OUT=  1
A=000000f3,B=000000f1,OP=  2,Out=00000002,FLAGS_OUT=  2,FLAGS=  8,S=  1,ALU_OUT=  1
A=00001111,B=00001111,OP=  2,Out=00000000,FLAGS_OUT=  6,FLAGS=  2,S=  1,ALU_OUT=  1
*** Testin RSB ***
A=000000fb,B=0000000b,OP=  3,Out=ffffff10,FLAGS_OUT=  8,FLAGS=  6,S=  1,ALU_OUT=  1
A=00000001,B=00000001,OP=  3,Out=00000000,FLAGS_OUT=  6,FLAGS=  8,S=  1,ALU_OUT=  1
A=0000000f,B=0000000f,OP=  3,Out=00000000,FLAGS_OUT=  6,FLAGS=  6,S=  1,ALU_OUT=  1
A=0000000f,B=000000f0,OP=  3,Out=000000e1,FLAGS_OUT=  2,FLAGS=  6,S=  1,ALU_OUT=  1
A=000000f3,B=000000f1,OP=  3,Out=fffffffe,FLAGS_OUT=  8,FLAGS=  2,S=  1,ALU_OUT=  1
A=00001111,B=00001111,OP=  3,Out=00000000,FLAGS_OUT=  6,FLAGS=  8,S=  1,ALU_OUT=  1
*** Testin ADD ***
A=000000fb,B=0000000b,OP=  4,Out=00000106,FLAGS_OUT=  0,FLAGS=  6,S=  1,ALU_OUT=  1
A=00000001,B=00000001,OP=  4,Out=00000002,FLAGS_OUT=  0,FLAGS=  0,S=  1,ALU_OUT=  1
A=0000000f,B=0000000f,OP=  4,Out=0000001e,FLAGS_OUT=  0,FLAGS=  0,S=  1,ALU_OUT=  1
A=0000000f,B=000000f0,OP=  4,Out=000000ff,FLAGS_OUT=  0,FLAGS=  0,S=  1,ALU_OUT=  1
A=000000f3,B=000000f1,OP=  4,Out=000001e4,FLAGS_OUT=  0,FLAGS=  0,S=  1,ALU_OUT=  1
A=00001111,B=00001111,OP=  4,Out=00002222,FLAGS_OUT=  0,FLAGS=  0,S=  1,ALU_OUT=  1
*** Testin ADC ***
A=000000fb,B=0000000b,OP=  5,Out=00000107,FLAGS_OUT=  0,FLAGS=  2,S=  1,ALU_OUT=  1
A=00000001,B=00000001,OP=  5,Out=00000003,FLAGS_OUT=  0,FLAGS=  2,S=  1,ALU_OUT=  1
A=0000000f,B=0000000f,OP=  5,Out=0000001f,FLAGS_OUT=  0,FLAGS=  2,S=  1,ALU_OUT=  1
A=0000000f,B=000000f0,OP=  5,Out=00000100,FLAGS_OUT=  0,FLAGS=  2,S=  1,ALU_OUT=  1
A=000000f3,B=000000f1,OP=  5,Out=000001e5,FLAGS_OUT=  0,FLAGS=  2,S=  1,ALU_OUT=  1
A=00001111,B=00001111,OP=  5,Out=00002223,FLAGS_OUT=  0,FLAGS=  2,S=  1,ALU_OUT=  1
*** Testin SBC ***
A=000000fb,B=0000000b,OP=  6,Out=000000ef,FLAGS_OUT=  2,FLAGS=  0,S=  1,ALU_OUT=  1
A=00000001,B=00000001,OP=  6,Out=ffffffff,FLAGS_OUT=  8,FLAGS=  0,S=  1,ALU_OUT=  1
A=0000000f,B=0000000f,OP=  6,Out=ffffffff,FLAGS_OUT=  8,FLAGS=  0,S=  1,ALU_OUT=  1
A=0000000f,B=000000f0,OP=  6,Out=ffffff1e,FLAGS_OUT=  8,FLAGS=  0,S=  1,ALU_OUT=  1
A=000000f3,B=000000f1,OP=  6,Out=00000001,FLAGS_OUT=  2,FLAGS=  0,S=  1,ALU_OUT=  1
A=00001111,B=00001111,OP=  6,Out=ffffffff,FLAGS_OUT=  8,FLAGS=  0,S=  1,ALU_OUT=  1
*** Testin RSC ***
A=000000fb,B=0000000b,OP=  7,Out=00000105,FLAGS_OUT=  0,FLAGS=  0,S=  1,ALU_OUT=  1
A=00000001,B=00000001,OP=  7,Out=00000001,FLAGS_OUT=  0,FLAGS=  0,S=  1,ALU_OUT=  1
A=0000000f,B=0000000f,OP=  7,Out=0000001d,FLAGS_OUT=  0,FLAGS=  0,S=  1,ALU_OUT=  1
A=0000000f,B=000000f0,OP=  7,Out=000000fe,FLAGS_OUT=  0,FLAGS=  0,S=  1,ALU_OUT=  1
A=000000f3,B=000000f1,OP=  7,Out=000001e3,FLAGS_OUT=  0,FLAGS=  0,S=  1,ALU_OUT=  1
A=00001111,B=00001111,OP=  7,Out=00002221,FLAGS_OUT=  0,FLAGS=  0,S=  1,ALU_OUT=  1
*** Testin TST ***
A=000000fb,B=0000000b,OP=  8,Out=zzzzzzzz,FLAGS_OUT=  0,FLAGS=  0,S=  1,ALU_OUT=  0
A=00000001,B=00000001,OP=  8,Out=zzzzzzzz,FLAGS_OUT=  0,FLAGS=  0,S=  1,ALU_OUT=  0
A=0000000f,B=0000000f,OP=  8,Out=zzzzzzzz,FLAGS_OUT=  0,FLAGS=  0,S=  1,ALU_OUT=  0
A=0000000f,B=000000f0,OP=  8,Out=zzzzzzzz,FLAGS_OUT=  4,FLAGS=  0,S=  1,ALU_OUT=  0
A=000000f3,B=000000f1,OP=  8,Out=zzzzzzzz,FLAGS_OUT=  0,FLAGS=  4,S=  1,ALU_OUT=  0
A=00001111,B=00001111,OP=  8,Out=zzzzzzzz,FLAGS_OUT=  0,FLAGS=  0,S=  1,ALU_OUT=  0
*** Testin TEQ ***
A=000000fb,B=0000000b,OP=  9,Out=zzzzzzzz,FLAGS_OUT=  0,FLAGS=  0,S=  1,ALU_OUT=  0
A=00000001,B=00000001,OP=  9,Out=zzzzzzzz,FLAGS_OUT=  4,FLAGS=  0,S=  1,ALU_OUT=  0
A=0000000f,B=0000000f,OP=  9,Out=zzzzzzzz,FLAGS_OUT=  4,FLAGS=  4,S=  1,ALU_OUT=  0
A=0000000f,B=000000f0,OP=  9,Out=zzzzzzzz,FLAGS_OUT=  0,FLAGS=  4,S=  1,ALU_OUT=  0
A=000000f3,B=000000f1,OP=  9,Out=zzzzzzzz,FLAGS_OUT=  0,FLAGS=  0,S=  1,ALU_OUT=  0
A=00001111,B=00001111,OP=  9,Out=zzzzzzzz,FLAGS_OUT=  4,FLAGS=  0,S=  1,ALU_OUT=  0
*** Testin CMP ***
A=000000fb,B=0000000b,OP= 10,Out=zzzzzzzz,FLAGS_OUT=  2,FLAGS=  4,S=  1,ALU_OUT=  0
A=00000001,B=00000001,OP= 10,Out=zzzzzzzz,FLAGS_OUT=  6,FLAGS=  2,S=  1,ALU_OUT=  0
A=0000000f,B=0000000f,OP= 10,Out=zzzzzzzz,FLAGS_OUT=  6,FLAGS=  6,S=  1,ALU_OUT=  0
A=0000000f,B=000000f0,OP= 10,Out=zzzzzzzz,FLAGS_OUT=  8,FLAGS=  6,S=  1,ALU_OUT=  0
A=000000f3,B=000000f1,OP= 10,Out=zzzzzzzz,FLAGS_OUT=  2,FLAGS=  8,S=  1,ALU_OUT=  0
A=00001111,B=00001111,OP= 10,Out=zzzzzzzz,FLAGS_OUT=  6,FLAGS=  2,S=  1,ALU_OUT=  0
*** Testin CMN ***
A=000000fb,B=0000000b,OP= 11,Out=zzzzzzzz,FLAGS_OUT=  0,FLAGS=  6,S=  1,ALU_OUT=  0
A=00000001,B=00000001,OP= 11,Out=zzzzzzzz,FLAGS_OUT=  0,FLAGS=  0,S=  1,ALU_OUT=  0
A=0000000f,B=0000000f,OP= 11,Out=zzzzzzzz,FLAGS_OUT=  0,FLAGS=  0,S=  1,ALU_OUT=  0
A=0000000f,B=000000f0,OP= 11,Out=zzzzzzzz,FLAGS_OUT=  0,FLAGS=  0,S=  1,ALU_OUT=  0
A=000000f3,B=000000f1,OP= 11,Out=zzzzzzzz,FLAGS_OUT=  0,FLAGS=  0,S=  1,ALU_OUT=  0
A=00001111,B=00001111,OP= 11,Out=zzzzzzzz,FLAGS_OUT=  0,FLAGS=  0,S=  1,ALU_OUT=  0
*** Testin ORR ***
A=000000fb,B=0000000b,OP= 12,Out=000000fb,FLAGS_OUT=  0,FLAGS=  0,S=  1,ALU_OUT=  1
A=00000001,B=00000001,OP= 12,Out=00000001,FLAGS_OUT=  0,FLAGS=  0,S=  1,ALU_OUT=  1
A=0000000f,B=0000000f,OP= 12,Out=0000000f,FLAGS_OUT=  0,FLAGS=  0,S=  1,ALU_OUT=  1
A=0000000f,B=000000f0,OP= 12,Out=000000ff,FLAGS_OUT=  0,FLAGS=  0,S=  1,ALU_OUT=  1
A=000000f3,B=000000f1,OP= 12,Out=000000f3,FLAGS_OUT=  0,FLAGS=  0,S=  1,ALU_OUT=  1
A=00001111,B=00001111,OP= 12,Out=00001111,FLAGS_OUT=  0,FLAGS=  0,S=  1,ALU_OUT=  1
*** Testin BIC ***
A=000000fb,B=0000000b,OP= 14,Out=000000f0,FLAGS_OUT=  0,FLAGS=  0,S=  1,ALU_OUT=  1
A=00000001,B=00000001,OP= 14,Out=00000000,FLAGS_OUT=  4,FLAGS=  0,S=  1,ALU_OUT=  1
A=0000000f,B=0000000f,OP= 14,Out=00000000,FLAGS_OUT=  4,FLAGS=  4,S=  1,ALU_OUT=  1
A=0000000f,B=000000f0,OP= 14,Out=0000000f,FLAGS_OUT=  0,FLAGS=  4,S=  1,ALU_OUT=  1
A=000000f3,B=000000f1,OP= 14,Out=00000002,FLAGS_OUT=  0,FLAGS=  0,S=  1,ALU_OUT=  1
A=00001111,B=00001111,OP= 14,Out=00000000,FLAGS_OUT=  4,FLAGS=  0,S=  1,ALU_OUT=  1
*** Testin MVN ***
A=000000fb,B=0000000b,OP= 15,Out=fffffff4,FLAGS_OUT=  9,FLAGS=  4,S=  1,ALU_OUT=  1
A=00000001,B=00000001,OP= 15,Out=fffffffe,FLAGS_OUT=  9,FLAGS=  9,S=  1,ALU_OUT=  1
A=0000000f,B=0000000f,OP= 15,Out=fffffff0,FLAGS_OUT=  9,FLAGS=  9,S=  1,ALU_OUT=  1
A=0000000f,B=000000f0,OP= 15,Out=ffffff0f,FLAGS_OUT=  9,FLAGS=  9,S=  1,ALU_OUT=  1
A=000000f3,B=000000f1,OP= 15,Out=ffffff0e,FLAGS_OUT=  9,FLAGS=  9,S=  1,ALU_OUT=  1
A=00001111,B=00001111,OP= 15,Out=ffffeeee,FLAGS_OUT=  9,FLAGS=  9,S=  1,ALU_OUT=  1
*** Testin BYPASS ***
A=000000fb,B=0000000b,OP= 16,Out=0000000b,FLAGS_OUT=  0,FLAGS=  9,S=  1,ALU_OUT=  1
A=00000001,B=00000001,OP= 16,Out=00000001,FLAGS_OUT=  0,FLAGS=  0,S=  1,ALU_OUT=  1
A=0000000f,B=0000000f,OP= 16,Out=0000000f,FLAGS_OUT=  0,FLAGS=  0,S=  1,ALU_OUT=  1
A=0000000f,B=000000f0,OP= 16,Out=000000f0,FLAGS_OUT=  0,FLAGS=  0,S=  1,ALU_OUT=  1
A=000000f3,B=000000f1,OP= 16,Out=000000f1,FLAGS_OUT=  0,FLAGS=  0,S=  1,ALU_OUT=  1
A=00001111,B=00001111,OP= 16,Out=00001111,FLAGS_OUT=  0,FLAGS=  0,S=  1,ALU_OUT=  1
*** Testin INC ***
A=000000fb,B=0000000b,OP= 17,Out=000000fc,FLAGS_OUT=  0,FLAGS=  0,S=  1,ALU_OUT=  1
A=00000001,B=00000001,OP= 17,Out=00000002,FLAGS_OUT=  0,FLAGS=  0,S=  1,ALU_OUT=  1
A=0000000f,B=0000000f,OP= 17,Out=00000010,FLAGS_OUT=  0,FLAGS=  0,S=  1,ALU_OUT=  1
A=0000000f,B=000000f0,OP= 17,Out=00000010,FLAGS_OUT=  0,FLAGS=  0,S=  1,ALU_OUT=  1
A=000000f3,B=000000f1,OP= 17,Out=000000f4,FLAGS_OUT=  0,FLAGS=  0,S=  1,ALU_OUT=  1
A=00001111,B=00001111,OP= 17,Out=00001112,FLAGS_OUT=  0,FLAGS=  0,S=  1,ALU_OUT=  1
