VerilogSource/EmbededSystem/ARM_CU_ALU_TestBench5.vcd
$date
	Thu Apr 28 12:42:33 2016
$end
$version
	Icarus Verilog
$end
$timescale
	1s
$end
$scope module ARM_CU_ALU_TestBench5 $end
$var wire 32 ! MEMDAT [31:0] $end
$var wire 1 " WORD_BYTE $end
$var wire 1 # READ_WRITE $end
$var wire 1 $ MFC $end
$var wire 1 % MFA $end
$var wire 8 & MEMADD [7:0] $end
$var reg 1 ' Clk $end
$var reg 1 ( MEMLOAD $end
$var reg 1 ) MEMSTORE $end
$var reg 1 * Reset $end
$scope module CPU $end
$var wire 1 ' Clk $end
$var wire 32 + MEMDAT [31:0] $end
$var wire 1 ( MEMLOAD $end
$var wire 1 ) MEMSTORE $end
$var wire 32 , Out [31:0] $end
$var wire 32 - PCout [31:0] $end
$var wire 1 * Reset $end
$var wire 32 . Rm [31:0] $end
$var wire 32 / Rn [31:0] $end
$var wire 32 0 Rs [31:0] $end
$var wire 5 1 opcode [4:0] $end
$var wire 4 2 _SRIN [3:0] $end
$var wire 32 3 _B [31:0] $end
$var wire 1 " WORD_BYTE $end
$var wire 4 4 SROUT [3:0] $end
$var wire 1 5 SRLOAD $end
$var wire 4 6 SRIN [3:0] $end
$var wire 1 7 SRENABLED $end
$var wire 1 8 SR29_OUT $end
$var wire 1 9 RFLOAD $end
$var wire 1 # READ_WRITE $end
$var wire 1 : PCLOAD $end
$var wire 1 $ MFC $end
$var wire 1 % MFA $end
$var wire 8 ; MEMADD [7:0] $end
$var wire 1 < MBRSTORE $end
$var wire 1 = MBRLOAD $end
$var wire 1 > MARLOAD $end
$var wire 1 ? IR_CU $end
$var wire 1 @ IRLOAD $end
$var wire 32 A IR [31:0] $end
$var wire 4 B CU [3:0] $end
$var wire 1 C ALUSTORE $end
$var reg 20 D RSLCT [19:0] $end
$scope module IRR $end
$var wire 1 ' Clk $end
$var wire 32 E IN [31:0] $end
$var wire 1 * Reset $end
$var wire 32 F OUT [31:0] $end
$var wire 1 @ Load $end
$var reg 32 G d [31:0] $end
$upscope $end
$scope module MAR $end
$var wire 1 ' Clk $end
$var wire 32 H IN [31:0] $end
$var wire 1 * Reset $end
$var wire 32 I OUT [31:0] $end
$var wire 1 > Load $end
$var reg 32 J d [31:0] $end
$upscope $end
$scope module RF $end
$var wire 1 ' Clk $end
$var wire 32 K PCout [31:0] $end
$var wire 32 L Pcin [31:0] $end
$var wire 1 * RESET $end
$var wire 20 M RSLCT [19:0] $end
$var wire 32 N Rm [31:0] $end
$var wire 32 O Rn [31:0] $end
$var wire 32 P Rs [31:0] $end
$var wire 32 Q _pcin [31:0] $end
$var wire 32 R in [31:0] $end
$var wire 4 S _RN_CU [3:0] $end
$var wire 1 : LOADPC $end
$var wire 1 9 LOAD $end
$var wire 1 ? IR_CU $end
$var wire 16 T DecoderRs [15:0] $end
$var wire 16 U DecoderRn_CU [15:0] $end
$var wire 16 V DecoderRm [15:0] $end
$var wire 16 W DecoderRd [15:0] $end
$scope begin buffers[0] $end
$scope module bufffer $end
$var wire 32 X OUT [31:0] $end
$var wire 1 Y Store $end
$var wire 32 Z IN [31:0] $end
$upscope $end
$upscope $end
$scope begin buffers[1] $end
$scope module bufffer $end
$var wire 32 [ OUT [31:0] $end
$var wire 1 \ Store $end
$var wire 32 ] IN [31:0] $end
$upscope $end
$upscope $end
$scope begin buffers[2] $end
$scope module bufffer $end
$var wire 32 ^ OUT [31:0] $end
$var wire 1 _ Store $end
$var wire 32 ` IN [31:0] $end
$upscope $end
$upscope $end
$scope begin buffers[3] $end
$scope module bufffer $end
$var wire 32 a OUT [31:0] $end
$var wire 1 b Store $end
$var wire 32 c IN [31:0] $end
$upscope $end
$upscope $end
$scope begin buffers[4] $end
$scope module bufffer $end
$var wire 32 d OUT [31:0] $end
$var wire 1 e Store $end
$var wire 32 f IN [31:0] $end
$upscope $end
$upscope $end
$scope begin buffers[5] $end
$scope module bufffer $end
$var wire 32 g OUT [31:0] $end
$var wire 1 h Store $end
$var wire 32 i IN [31:0] $end
$upscope $end
$upscope $end
$scope begin buffers[6] $end
$scope module bufffer $end
$var wire 32 j OUT [31:0] $end
$var wire 1 k Store $end
$var wire 32 l IN [31:0] $end
$upscope $end
$upscope $end
$scope begin buffers[7] $end
$scope module bufffer $end
$var wire 32 m OUT [31:0] $end
$var wire 1 n Store $end
$var wire 32 o IN [31:0] $end
$upscope $end
$upscope $end
$scope begin buffers[8] $end
$scope module bufffer $end
$var wire 32 p OUT [31:0] $end
$var wire 1 q Store $end
$var wire 32 r IN [31:0] $end
$upscope $end
$upscope $end
$scope begin buffers[9] $end
$scope module bufffer $end
$var wire 32 s OUT [31:0] $end
$var wire 1 t Store $end
$var wire 32 u IN [31:0] $end
$upscope $end
$upscope $end
$scope begin buffers[10] $end
$scope module bufffer $end
$var wire 32 v OUT [31:0] $end
$var wire 1 w Store $end
$var wire 32 x IN [31:0] $end
$upscope $end
$upscope $end
$scope begin buffers[11] $end
$scope module bufffer $end
$var wire 32 y OUT [31:0] $end
$var wire 1 z Store $end
$var wire 32 { IN [31:0] $end
$upscope $end
$upscope $end
$scope begin buffers[12] $end
$scope module bufffer $end
$var wire 32 | OUT [31:0] $end
$var wire 1 } Store $end
$var wire 32 ~ IN [31:0] $end
$upscope $end
$upscope $end
$scope begin buffers[13] $end
$scope module bufffer $end
$var wire 32 !" OUT [31:0] $end
$var wire 1 "" Store $end
$var wire 32 #" IN [31:0] $end
$upscope $end
$upscope $end
$scope begin buffers[14] $end
$scope module bufffer $end
$var wire 32 $" OUT [31:0] $end
$var wire 1 %" Store $end
$var wire 32 &" IN [31:0] $end
$upscope $end
$upscope $end
$scope begin buffers[15] $end
$scope module bufffer $end
$var wire 32 '" OUT [31:0] $end
$var wire 1 (" Store $end
$var wire 32 )" IN [31:0] $end
$upscope $end
$upscope $end
$scope begin buffers2[0] $end
$scope module bufffer2 $end
$var wire 32 *" OUT [31:0] $end
$var wire 1 +" Store $end
$var wire 32 ," IN [31:0] $end
$upscope $end
$upscope $end
$scope begin buffers2[1] $end
$scope module bufffer2 $end
$var wire 32 -" OUT [31:0] $end
$var wire 1 ." Store $end
$var wire 32 /" IN [31:0] $end
$upscope $end
$upscope $end
$scope begin buffers2[2] $end
$scope module bufffer2 $end
$var wire 32 0" OUT [31:0] $end
$var wire 1 1" Store $end
$var wire 32 2" IN [31:0] $end
$upscope $end
$upscope $end
$scope begin buffers2[3] $end
$scope module bufffer2 $end
$var wire 32 3" OUT [31:0] $end
$var wire 1 4" Store $end
$var wire 32 5" IN [31:0] $end
$upscope $end
$upscope $end
$scope begin buffers2[4] $end
$scope module bufffer2 $end
$var wire 32 6" OUT [31:0] $end
$var wire 1 7" Store $end
$var wire 32 8" IN [31:0] $end
$upscope $end
$upscope $end
$scope begin buffers2[5] $end
$scope module bufffer2 $end
$var wire 32 9" OUT [31:0] $end
$var wire 1 :" Store $end
$var wire 32 ;" IN [31:0] $end
$upscope $end
$upscope $end
$scope begin buffers2[6] $end
$scope module bufffer2 $end
$var wire 32 <" OUT [31:0] $end
$var wire 1 =" Store $end
$var wire 32 >" IN [31:0] $end
$upscope $end
$upscope $end
$scope begin buffers2[7] $end
$scope module bufffer2 $end
$var wire 32 ?" OUT [31:0] $end
$var wire 1 @" Store $end
$var wire 32 A" IN [31:0] $end
$upscope $end
$upscope $end
$scope begin buffers2[8] $end
$scope module bufffer2 $end
$var wire 32 B" OUT [31:0] $end
$var wire 1 C" Store $end
$var wire 32 D" IN [31:0] $end
$upscope $end
$upscope $end
$scope begin buffers2[9] $end
$scope module bufffer2 $end
$var wire 32 E" OUT [31:0] $end
$var wire 1 F" Store $end
$var wire 32 G" IN [31:0] $end
$upscope $end
$upscope $end
$scope begin buffers2[10] $end
$scope module bufffer2 $end
$var wire 32 H" OUT [31:0] $end
$var wire 1 I" Store $end
$var wire 32 J" IN [31:0] $end
$upscope $end
$upscope $end
$scope begin buffers2[11] $end
$scope module bufffer2 $end
$var wire 32 K" OUT [31:0] $end
$var wire 1 L" Store $end
$var wire 32 M" IN [31:0] $end
$upscope $end
$upscope $end
$scope begin buffers2[12] $end
$scope module bufffer2 $end
$var wire 32 N" OUT [31:0] $end
$var wire 1 O" Store $end
$var wire 32 P" IN [31:0] $end
$upscope $end
$upscope $end
$scope begin buffers2[13] $end
$scope module bufffer2 $end
$var wire 32 Q" OUT [31:0] $end
$var wire 1 R" Store $end
$var wire 32 S" IN [31:0] $end
$upscope $end
$upscope $end
$scope begin buffers2[14] $end
$scope module bufffer2 $end
$var wire 32 T" OUT [31:0] $end
$var wire 1 U" Store $end
$var wire 32 V" IN [31:0] $end
$upscope $end
$upscope $end
$scope begin buffers2[15] $end
$scope module bufffer2 $end
$var wire 32 W" OUT [31:0] $end
$var wire 1 X" Store $end
$var wire 32 Y" IN [31:0] $end
$upscope $end
$upscope $end
$scope begin buffers3[0] $end
$scope module bufffer3 $end
$var wire 32 Z" OUT [31:0] $end
$var wire 1 [" Store $end
$var wire 32 \" IN [31:0] $end
$upscope $end
$upscope $end
$scope begin buffers3[1] $end
$scope module bufffer3 $end
$var wire 32 ]" OUT [31:0] $end
$var wire 1 ^" Store $end
$var wire 32 _" IN [31:0] $end
$upscope $end
$upscope $end
$scope begin buffers3[2] $end
$scope module bufffer3 $end
$var wire 32 `" OUT [31:0] $end
$var wire 1 a" Store $end
$var wire 32 b" IN [31:0] $end
$upscope $end
$upscope $end
$scope begin buffers3[3] $end
$scope module bufffer3 $end
$var wire 32 c" OUT [31:0] $end
$var wire 1 d" Store $end
$var wire 32 e" IN [31:0] $end
$upscope $end
$upscope $end
$scope begin buffers3[4] $end
$scope module bufffer3 $end
$var wire 32 f" OUT [31:0] $end
$var wire 1 g" Store $end
$var wire 32 h" IN [31:0] $end
$upscope $end
$upscope $end
$scope begin buffers3[5] $end
$scope module bufffer3 $end
$var wire 32 i" OUT [31:0] $end
$var wire 1 j" Store $end
$var wire 32 k" IN [31:0] $end
$upscope $end
$upscope $end
$scope begin buffers3[6] $end
$scope module bufffer3 $end
$var wire 32 l" OUT [31:0] $end
$var wire 1 m" Store $end
$var wire 32 n" IN [31:0] $end
$upscope $end
$upscope $end
$scope begin buffers3[7] $end
$scope module bufffer3 $end
$var wire 32 o" OUT [31:0] $end
$var wire 1 p" Store $end
$var wire 32 q" IN [31:0] $end
$upscope $end
$upscope $end
$scope begin buffers3[8] $end
$scope module bufffer3 $end
$var wire 32 r" OUT [31:0] $end
$var wire 1 s" Store $end
$var wire 32 t" IN [31:0] $end
$upscope $end
$upscope $end
$scope begin buffers3[9] $end
$scope module bufffer3 $end
$var wire 32 u" OUT [31:0] $end
$var wire 1 v" Store $end
$var wire 32 w" IN [31:0] $end
$upscope $end
$upscope $end
$scope begin buffers3[10] $end
$scope module bufffer3 $end
$var wire 32 x" OUT [31:0] $end
$var wire 1 y" Store $end
$var wire 32 z" IN [31:0] $end
$upscope $end
$upscope $end
$scope begin buffers3[11] $end
$scope module bufffer3 $end
$var wire 32 {" OUT [31:0] $end
$var wire 1 |" Store $end
$var wire 32 }" IN [31:0] $end
$upscope $end
$upscope $end
$scope begin buffers3[12] $end
$scope module bufffer3 $end
$var wire 32 ~" OUT [31:0] $end
$var wire 1 !# Store $end
$var wire 32 "# IN [31:0] $end
$upscope $end
$upscope $end
$scope begin buffers3[13] $end
$scope module bufffer3 $end
$var wire 32 ## OUT [31:0] $end
$var wire 1 $# Store $end
$var wire 32 %# IN [31:0] $end
$upscope $end
$upscope $end
$scope begin buffers3[14] $end
$scope module bufffer3 $end
$var wire 32 &# OUT [31:0] $end
$var wire 1 '# Store $end
$var wire 32 (# IN [31:0] $end
$upscope $end
$upscope $end
$scope begin buffers3[15] $end
$scope module bufffer3 $end
$var wire 32 )# OUT [31:0] $end
$var wire 1 *# Store $end
$var wire 32 +# IN [31:0] $end
$upscope $end
$upscope $end
$scope begin registers[0] $end
$scope begin genblk2 $end
$scope module test_reg $end
$var wire 1 ' Clk $end
$var wire 32 ,# IN [31:0] $end
$var wire 1 -# Load $end
$var wire 1 * Reset $end
$var wire 32 .# OUT [31:0] $end
$var reg 32 /# d [31:0] $end
$upscope $end
$upscope $end
$upscope $end
$scope begin registers[1] $end
$scope begin genblk2 $end
$scope module test_reg $end
$var wire 1 ' Clk $end
$var wire 32 0# IN [31:0] $end
$var wire 1 1# Load $end
$var wire 1 * Reset $end
$var wire 32 2# OUT [31:0] $end
$var reg 32 3# d [31:0] $end
$upscope $end
$upscope $end
$upscope $end
$scope begin registers[2] $end
$scope begin genblk2 $end
$scope module test_reg $end
$var wire 1 ' Clk $end
$var wire 32 4# IN [31:0] $end
$var wire 1 5# Load $end
$var wire 1 * Reset $end
$var wire 32 6# OUT [31:0] $end
$var reg 32 7# d [31:0] $end
$upscope $end
$upscope $end
$upscope $end
$scope begin registers[3] $end
$scope begin genblk2 $end
$scope module test_reg $end
$var wire 1 ' Clk $end
$var wire 32 8# IN [31:0] $end
$var wire 1 9# Load $end
$var wire 1 * Reset $end
$var wire 32 :# OUT [31:0] $end
$var reg 32 ;# d [31:0] $end
$upscope $end
$upscope $end
$upscope $end
$scope begin registers[4] $end
$scope begin genblk2 $end
$scope module test_reg $end
$var wire 1 ' Clk $end
$var wire 32 <# IN [31:0] $end
$var wire 1 =# Load $end
$var wire 1 * Reset $end
$var wire 32 ># OUT [31:0] $end
$var reg 32 ?# d [31:0] $end
$upscope $end
$upscope $end
$upscope $end
$scope begin registers[5] $end
$scope begin genblk2 $end
$scope module test_reg $end
$var wire 1 ' Clk $end
$var wire 32 @# IN [31:0] $end
$var wire 1 A# Load $end
$var wire 1 * Reset $end
$var wire 32 B# OUT [31:0] $end
$var reg 32 C# d [31:0] $end
$upscope $end
$upscope $end
$upscope $end
$scope begin registers[6] $end
$scope begin genblk2 $end
$scope module test_reg $end
$var wire 1 ' Clk $end
$var wire 32 D# IN [31:0] $end
$var wire 1 E# Load $end
$var wire 1 * Reset $end
$var wire 32 F# OUT [31:0] $end
$var reg 32 G# d [31:0] $end
$upscope $end
$upscope $end
$upscope $end
$scope begin registers[7] $end
$scope begin genblk2 $end
$scope module test_reg $end
$var wire 1 ' Clk $end
$var wire 32 H# IN [31:0] $end
$var wire 1 I# Load $end
$var wire 1 * Reset $end
$var wire 32 J# OUT [31:0] $end
$var reg 32 K# d [31:0] $end
$upscope $end
$upscope $end
$upscope $end
$scope begin registers[8] $end
$scope begin genblk2 $end
$scope module test_reg $end
$var wire 1 ' Clk $end
$var wire 32 L# IN [31:0] $end
$var wire 1 M# Load $end
$var wire 1 * Reset $end
$var wire 32 N# OUT [31:0] $end
$var reg 32 O# d [31:0] $end
$upscope $end
$upscope $end
$upscope $end
$scope begin registers[9] $end
$scope begin genblk2 $end
$scope module test_reg $end
$var wire 1 ' Clk $end
$var wire 32 P# IN [31:0] $end
$var wire 1 Q# Load $end
$var wire 1 * Reset $end
$var wire 32 R# OUT [31:0] $end
$var reg 32 S# d [31:0] $end
$upscope $end
$upscope $end
$upscope $end
$scope begin registers[10] $end
$scope begin genblk2 $end
$scope module test_reg $end
$var wire 1 ' Clk $end
$var wire 32 T# IN [31:0] $end
$var wire 1 U# Load $end
$var wire 1 * Reset $end
$var wire 32 V# OUT [31:0] $end
$var reg 32 W# d [31:0] $end
$upscope $end
$upscope $end
$upscope $end
$scope begin registers[11] $end
$scope begin genblk2 $end
$scope module test_reg $end
$var wire 1 ' Clk $end
$var wire 32 X# IN [31:0] $end
$var wire 1 Y# Load $end
$var wire 1 * Reset $end
$var wire 32 Z# OUT [31:0] $end
$var reg 32 [# d [31:0] $end
$upscope $end
$upscope $end
$upscope $end
$scope begin registers[12] $end
$scope begin genblk2 $end
$scope module test_reg $end
$var wire 1 ' Clk $end
$var wire 32 \# IN [31:0] $end
$var wire 1 ]# Load $end
$var wire 1 * Reset $end
$var wire 32 ^# OUT [31:0] $end
$var reg 32 _# d [31:0] $end
$upscope $end
$upscope $end
$upscope $end
$scope begin registers[13] $end
$scope begin genblk2 $end
$scope module test_reg $end
$var wire 1 ' Clk $end
$var wire 32 `# IN [31:0] $end
$var wire 1 a# Load $end
$var wire 1 * Reset $end
$var wire 32 b# OUT [31:0] $end
$var reg 32 c# d [31:0] $end
$upscope $end
$upscope $end
$upscope $end
$scope begin registers[14] $end
$scope begin genblk2 $end
$scope module test_reg $end
$var wire 1 ' Clk $end
$var wire 32 d# IN [31:0] $end
$var wire 1 e# Load $end
$var wire 1 * Reset $end
$var wire 32 f# OUT [31:0] $end
$var reg 32 g# d [31:0] $end
$upscope $end
$upscope $end
$upscope $end
$scope begin registers[15] $end
$scope begin genblk3 $end
$scope module test_reg $end
$var wire 1 ' Clk $end
$var wire 32 h# IN [31:0] $end
$var wire 1 i# Load $end
$var wire 1 * Reset $end
$var wire 32 j# OUT [31:0] $end
$var reg 32 k# d [31:0] $end
$upscope $end
$upscope $end
$upscope $end
$scope module DRd $end
$var wire 4 l# IN [3:0] $end
$var reg 16 m# OUT [15:0] $end
$var integer 32 n# i [31:0] $end
$upscope $end
$scope module DRm $end
$var wire 4 o# IN [3:0] $end
$var reg 16 p# OUT [15:0] $end
$var integer 32 q# i [31:0] $end
$upscope $end
$scope module DRn_CU $end
$var wire 4 r# IN [3:0] $end
$var reg 16 s# OUT [15:0] $end
$var integer 32 t# i [31:0] $end
$upscope $end
$scope module DRs $end
$var wire 4 u# IN [3:0] $end
$var reg 16 v# OUT [15:0] $end
$var integer 32 w# i [31:0] $end
$upscope $end
$scope module mux $end
$var wire 4 x# IN1 [3:0] $end
$var wire 4 y# IN2 [3:0] $end
$var wire 4 z# OUT [3:0] $end
$var wire 1 ? IR_CU $end
$upscope $end
$scope module pcbufffer1 $end
$var wire 32 {# IN [31:0] $end
$var wire 32 |# OUT [31:0] $end
$var wire 1 }# Store $end
$upscope $end
$scope module pcbufffer2 $end
$var wire 32 ~# IN [31:0] $end
$var wire 32 !$ OUT [31:0] $end
$var wire 1 "$ Store $end
$upscope $end
$upscope $end
$scope module SR $end
$var wire 1 ' Clk $end
$var wire 32 #$ IN [31:0] $end
$var wire 1 $$ Load $end
$var wire 1 * Reset $end
$var wire 32 %$ OUT [31:0] $end
$var reg 32 &$ d [31:0] $end
$upscope $end
$scope module alu $end
$var wire 32 '$ A [31:0] $end
$var wire 4 ($ FLAGS [3:0] $end
$var wire 32 )$ Out [31:0] $end
$var wire 1 *$ S $end
$var wire 5 +$ OP [4:0] $end
$var wire 4 ,$ FLAGS_OUT [3:0] $end
$var wire 32 -$ B [31:0] $end
$var wire 1 C ALU_OUT $end
$var reg 4 .$ FLAGS_buff [3:0] $end
$var reg 32 /$ _A [31:0] $end
$var reg 32 0$ _B [31:0] $end
$var reg 32 1$ buffer [31:0] $end
$upscope $end
$scope module bs $end
$var wire 32 2$ IR [31:0] $end
$var wire 32 3$ Out [31:0] $end
$var wire 32 4$ Rm [31:0] $end
$var wire 32 5$ Rs [31:0] $end
$var wire 1 6$ SR29_IN $end
$var wire 1 8 SR29_OUT $end
$var reg 32 7$ _Out [31:0] $end
$var reg 1 8 _SR29_OUT $end
$var reg 32 8$ shiftAmount [31:0] $end
$var reg 2 9$ shiftType [1:0] $end
$var reg 32 :$ shiftVal [31:0] $end
$var reg 33 ;$ temp [32:0] $end
$var reg 33 <$ temp2 [32:0] $end
$var integer 32 =$ i [31:0] $end
$upscope $end
$scope module cu $end
$var wire 1 ' Clk $end
$var wire 32 >$ IR [31:0] $end
$var wire 1 * Reset $end
$var wire 4 ?$ SR [3:0] $end
$var wire 1 $ MFC $end
$var reg 1 C ALUSTORE $end
$var reg 4 @$ CU [3:0] $end
$var reg 1 @ IRLOAD $end
$var reg 1 ? IR_CU $end
$var reg 1 > MARLOAD $end
$var reg 1 = MBRLOAD $end
$var reg 1 < MBRSTORE $end
$var reg 1 % MFA $end
$var reg 5 A$ NextState [4:0] $end
$var reg 1 : PCLOAD $end
$var reg 1 # READ_WRITE $end
$var reg 1 9 RFLOAD $end
$var reg 1 7 SRENABLED $end
$var reg 1 5 SRLOAD $end
$var reg 5 B$ State [4:0] $end
$var reg 1 " WORD_BYTE $end
$var reg 5 C$ opcode [4:0] $end
$upscope $end
$scope module register $end
$var wire 1 ' Clk $end
$var wire 32 D$ IN [31:0] $end
$var wire 32 E$ IN2 [31:0] $end
$var wire 1 = Load $end
$var wire 1 ( Load2 $end
$var wire 1 * Reset $end
$var wire 1 < Store $end
$var wire 1 ) Store2 $end
$var wire 32 F$ _OUT [31:0] $end
$scope module buff1 $end
$var wire 32 G$ OUT [31:0] $end
$var wire 1 < Store $end
$var wire 32 H$ IN [31:0] $end
$upscope $end
$scope module buff2 $end
$var wire 32 I$ OUT [31:0] $end
$var wire 1 ) Store $end
$var wire 32 J$ IN [31:0] $end
$upscope $end
$scope module register $end
$var wire 1 ' Clk $end
$var wire 32 K$ IN [31:0] $end
$var wire 32 L$ IN2 [31:0] $end
$var wire 1 = Load $end
$var wire 1 ( Load2 $end
$var wire 1 * Reset $end
$var wire 32 M$ OUT [31:0] $end
$var reg 32 N$ d [31:0] $end
$upscope $end
$upscope $end
$upscope $end
$scope module mem $end
$var wire 8 O$ Address [7:0] $end
$var wire 32 P$ Data [31:0] $end
$var wire 1 % MFA $end
$var wire 1 # ReadWrite $end
$var wire 1 * Reset $end
$var wire 1 " wordByte $end
$var reg 32 Q$ Data_Buff [31:0] $end
$var reg 1 $ MFC $end
$var reg 8 R$ tempAddress [7:0] $end
$var integer 32 S$ code [31:0] $end
$var integer 32 T$ fd [31:0] $end
$var integer 32 U$ i [31:0] $end
$var integer 32 V$ index [31:0] $end
$upscope $end
$upscope $end
$enddefinitions $end
#0
$dumpvars
b11111111 V$
bx U$
b10000000000000000000000000000011 T$
b100 S$
bx R$
bz Q$
b0 P$
b0 O$
b0 N$
b0 M$
b0 L$
b0 K$
b0 J$
b0 I$
b0 H$
b0 G$
b0 F$
b0 E$
b0 D$
b10010 C$
b1 B$
b10 A$
b1111 @$
b0 ?$
b0 >$
b100001 =$
b0 <$
b0 ;$
b0 :$
b0 9$
b0 8$
b0 7$
06$
b0 5$
b0 4$
b0 3$
b0 2$
b0 1$
b0 0$
b0 /$
b0 .$
b0 -$
b0 ,$
b10010 +$
0*$
b0 )$
b0 ($
b0 '$
b0 &$
b0 %$
1$$
b0 #$
0"$
bz !$
b0 ~#
0}#
bz |#
b0 {#
b1111 z#
b0 y#
b1111 x#
b10000 w#
b1 v#
b0 u#
b10000 t#
b1000000000000000 s#
b1111 r#
b10000 q#
b1 p#
b0 o#
b10000 n#
b1 m#
b0 l#
b0 k#
b0 j#
0i#
bz h#
b0 g#
b0 f#
0e#
b0 d#
b0 c#
b0 b#
0a#
b0 `#
b0 _#
b0 ^#
0]#
b0 \#
b0 [#
b0 Z#
0Y#
b0 X#
b0 W#
b0 V#
0U#
b0 T#
b0 S#
b0 R#
0Q#
b0 P#
b0 O#
b0 N#
0M#
b0 L#
b0 K#
b0 J#
0I#
b0 H#
b0 G#
b0 F#
0E#
b0 D#
b0 C#
b0 B#
0A#
b0 @#
b0 ?#
b0 >#
0=#
b0 <#
b0 ;#
b0 :#
09#
b0 8#
b0 7#
b0 6#
05#
b0 4#
b0 3#
b0 2#
01#
b0 0#
b0 /#
b0 .#
0-#
b0 ,#
b0 +#
0*#
b0 )#
b0 (#
0'#
b0 &#
b0 %#
0$#
b0 ##
b0 "#
0!#
b0 ~"
b0 }"
0|"
b0 {"
b0 z"
0y"
b0 x"
b0 w"
0v"
b0 u"
b0 t"
0s"
b0 r"
b0 q"
0p"
b0 o"
b0 n"
0m"
b0 l"
b0 k"
0j"
b0 i"
b0 h"
0g"
b0 f"
b0 e"
0d"
b0 c"
b0 b"
0a"
b0 `"
b0 _"
0^"
b0 ]"
b0 \"
1["
b0 Z"
b0 Y"
0X"
b0 W"
b0 V"
0U"
b0 T"
b0 S"
0R"
b0 Q"
b0 P"
0O"
b0 N"
b0 M"
0L"
b0 K"
b0 J"
0I"
b0 H"
b0 G"
0F"
b0 E"
b0 D"
0C"
b0 B"
b0 A"
0@"
b0 ?"
b0 >"
0="
b0 <"
b0 ;"
0:"
b0 9"
b0 8"
07"
b0 6"
b0 5"
04"
b0 3"
b0 2"
01"
b0 0"
b0 /"
0."
b0 -"
b0 ,"
1+"
b0 *"
b0 )"
1("
b0 '"
b0 &"
0%"
b0 $"
b0 #"
0""
b0 !"
b0 ~
0}
b0 |
b0 {
0z
b0 y
b0 x
0w
b0 v
b0 u
0t
b0 s
b0 r
0q
b0 p
b0 o
0n
b0 m
b0 l
0k
b0 j
b0 i
0h
b0 g
b0 f
0e
b0 d
b0 c
0b
b0 a
b0 `
0_
b0 ^
b0 ]
0\
b0 [
b0 Z
0Y
b0 X
b1 W
b1 V
b1000000000000000 U
b1 T
b1111 S
b0 R
bz Q
b0 P
b0 O
b0 N
b11110000000000000000 M
b0 L
bz K
b0 J
b0 I
b0 H
b0 G
b0 F
b0 E
b11110000000000000000 D
1C
b1111 B
b0 A
0@
0?
1>
0=
0<
b0 ;
0:
09
08
07
b0 6
05
b0 4
b0 3
b0 2
b10010 1
b0 0
b0 /
b0 .
bz -
b0 ,
b0 +
1*
1)
0(
0'
b0 &
0%
x$
0#
0"
b0 !
$end
#1
1'
0*
#2
b100 ,
b100 E
b100 H
b100 L
b100 R
b100 ,#
b100 0#
b100 4#
b100 8#
b100 <#
b100 @#
b100 D#
b100 H#
b100 L#
b100 P#
b100 T#
b100 X#
b100 \#
b100 `#
b100 d#
b100 {#
b100 ~#
b100 )$
b100 D$
b100 G$
b100 K$
b100 1$
b11100010000000010000000000000000 Q$
b11100010000000010000000000000000 !
b11100010000000010000000000000000 +
b11100010000000010000000000000000 E$
b11100010000000010000000000000000 I$
b11100010000000010000000000000000 L$
b11100010000000010000000000000000 P$
b100 Q
b100 h#
b100 |#
b100 !$
1(
0)
0$
1i#
1}#
b11 A$
b10001 1
b10001 +$
b10001 C$
0>
1#
1"
1%
1:
b10 B$
0'
#3
1$
1'
#4
bz Q
bz h#
bz |#
bz !$
0i#
0}#
bz ,
bz E
bz H
bz L
bz R
bz ,#
bz 0#
bz 4#
bz 8#
bz <#
bz @#
bz D#
bz H#
bz L#
bz P#
bz T#
bz X#
bz \#
bz `#
bz d#
bz {#
bz ~#
bz )$
bz D$
bz G$
bz K$
b10010 1
b10010 +$
b10010 C$
0:
0C
b100 A$
b100 1$
b11 B$
b100 /$
b100 /
b100 O
b100 X
b100 [
b100 ^
b100 a
b100 d
b100 g
b100 j
b100 m
b100 p
b100 s
b100 v
b100 y
b100 |
b100 !"
b100 $"
b100 '"
b100 '$
b100 )"
b100 Y"
b100 +#
b100 j#
b100 k#
b11100010000000010000000000000000 F$
b11100010000000010000000000000000 H$
b11100010000000010000000000000000 J$
b11100010000000010000000000000000 M$
b11100010000000010000000000000000 N$
0'
#5
1'
#6
b11100010000000010000000000000000 ,
b11100010000000010000000000000000 E
b11100010000000010000000000000000 H
b11100010000000010000000000000000 L
b11100010000000010000000000000000 R
b11100010000000010000000000000000 ,#
b11100010000000010000000000000000 0#
b11100010000000010000000000000000 4#
b11100010000000010000000000000000 8#
b11100010000000010000000000000000 <#
b11100010000000010000000000000000 @#
b11100010000000010000000000000000 D#
b11100010000000010000000000000000 H#
b11100010000000010000000000000000 L#
b11100010000000010000000000000000 P#
b11100010000000010000000000000000 T#
b11100010000000010000000000000000 X#
b11100010000000010000000000000000 \#
b11100010000000010000000000000000 `#
b11100010000000010000000000000000 d#
b11100010000000010000000000000000 {#
b11100010000000010000000000000000 ~#
b11100010000000010000000000000000 )$
b11100010000000010000000000000000 D$
b11100010000000010000000000000000 G$
b11100010000000010000000000000000 K$
0(
1)
b101 A$
1<
1@
0#
0"
0%
b100 B$
0'
#7
bz Q$
0$
1'
#8
b100 .$
b0 1$
b0 /$
b0 /
b0 O
b0 X
b0 [
b0 ^
b0 a
b0 d
b0 g
b0 j
b0 m
b0 p
b0 s
b0 v
b0 y
b0 |
b0 !"
b0 $"
b0 '"
b0 '$
1\
0("
b0 x#
b10 U
b10 s#
b10000 t#
b1 S
b1 r#
b1 z#
b0 ,
b0 E
b0 H
b0 L
b0 R
b0 ,#
b0 0#
b0 4#
b0 8#
b0 <#
b0 @#
b0 D#
b0 H#
b0 L#
b0 P#
b0 T#
b0 X#
b0 \#
b0 `#
b0 d#
b0 {#
b0 ~#
b0 )$
b0 D$
b0 G$
b0 K$
b110 A$
b0 B
b0 @$
0<
0@
1?
1C
b101 B$
b1 y#
b100001 =$
b1 D
b1 M
b11 9$
b11100010000000010000000000000000 A
b11100010000000010000000000000000 F
b11100010000000010000000000000000 G
b11100010000000010000000000000000 2$
b11100010000000010000000000000000 >$
0'
#9
1'
#10
bz ,
bz E
bz H
bz L
bz R
bz ,#
bz 0#
bz 4#
bz 8#
bz <#
bz @#
bz D#
bz H#
bz L#
bz P#
bz T#
bz X#
bz \#
bz `#
bz d#
bz {#
bz ~#
bz )$
bz D$
bz G$
bz K$
0C
b111 A$
b110 B$
0'
#11
1'
#12
b0 .$
1-#
b0 ,
b0 E
b0 H
b0 L
b0 R
b0 ,#
b0 0#
b0 4#
b0 8#
b0 <#
b0 @#
b0 D#
b0 H#
b0 L#
b0 P#
b0 T#
b0 X#
b0 \#
b0 `#
b0 d#
b0 {#
b0 ~#
b0 )$
b0 D$
b0 G$
b0 K$
b1 A$
b0 1
b0 +$
b0 C$
19
1C
b111 B$
0'
#13
1'
